{
  "project_info": {
    "firebase_url" : "null",
    "project_number": "662645350473",
    "project_id": "mansa-village-casino",
    "storage_bucket": "mansa-village-casino.appspot.com"
  },
  "client": [
    {
      "client_info": {
        "mobilesdk_app_id": "1:662645350473:android:a2eb096638dd034deedf98",
        "android_client_info": {
          "package_name": "com.Aardwolves.MansaVillageCasino"
        }
      },
      "oauth_client": [
        {
          "client_id": "662645350473-rdan5cdomfhn6cfhgl8hc7i8mg0t8bgt.apps.googleusercontent.com",
          "client_type": 3
        }
      ],
      "api_key": [
        {
          "current_key": "AIzaSyB2_9n6mhE43Yndif-PZ_Fiqi__P7fUoE4"
        }
      ],
      "services": {
        "appinvite_service": {
          "other_platform_oauth_client": [
            {
              "client_id": "662645350473-rdan5cdomfhn6cfhgl8hc7i8mg0t8bgt.apps.googleusercontent.com",
              "client_type": 3
            }
          ]
        }
      }
    }
  ],
  "configuration_version": "1"
}